{
  "AKVA-moxmgl_barge": "Barge Oxygen mg/L",
  "AKVA-moxmgl_pen1": "Cage 1 Oxygen mg/L",
  "AKVA-moxmgl_pen10": "Cage 10 Oxygen mg/L",
  "AKVA-moxmgl_pen11": "Cage 11 Oxygen mg/L",
  "AKVA-moxmgl_pen12": "Cage 12 Oxygen mg/L",
  "AKVA-moxmgl_pen13": "Cage 13 Oxygen mg/L",
  "AKVA-moxmgl_pen14": "Cage 14 Oxygen mg/L",
  "AKVA-moxmgl_pen2": "Cage 2 Oxygen mg/L",
  "AKVA-moxmgl_pen3": "Cage 3 Oxygen mg/L",
  "AKVA-moxmgl_pen4": "Cage 4 Oxygen mg/L",
  "AKVA-moxmgl_pen5": "Cage 5 Oxygen mg/L",
  "AKVA-moxmgl_pen6": "Cage 6 Oxygen mg/L",
  "AKVA-moxmgl_pen7": "Cage 7 Oxygen mg/L",
  "AKVA-moxmgl_pen8": "Cage 8 Oxygen mg/L",
  "AKVA-moxmgl_pen9": "Cage 9 Oxygen mg/L",
  "AKVA-moxo2sat_barge": "Barge Oxygen Saturation",
  "AKVA-moxo2sat_pen1": "Cage 1 Oxygen Saturation",
  "AKVA-moxo2sat_pen10": "Cage 10 Oxygen Saturation",
  "AKVA-moxo2sat_pen11": "Cage 11 Oxygen Saturation",
  "AKVA-moxo2sat_pen12": "Cage 12 Oxygen Saturation",
  "AKVA-moxo2sat_pen13": "Cage 13 Oxygen Saturation",
  "AKVA-moxo2sat_pen14": "Cage 14 Oxygen Saturation",
  "AKVA-moxo2sat_pen2": "Cage 2 Oxygen Saturation",
  "AKVA-moxo2sat_pen3": "Cage 3 Oxygen Saturation",
  "AKVA-moxo2sat_pen4": "Cage 4 Oxygen Saturation",
  "AKVA-moxo2sat_pen5": "Cage 5 Oxygen Saturation",
  "AKVA-moxo2sat_pen6": "Cage 6 Oxygen Saturation",
  "AKVA-moxo2sat_pen7": "Cage 7 Oxygen Saturation",
  "AKVA-moxo2sat_pen8": "Cage 8 Oxygen Saturation",
  "AKVA-moxo2sat_pen9": "Cage 9 Oxygen Saturation",
  "AKVA-moxtemp_barge": "Barge Water Temperature",
  "AKVA-moxtemp_pen1": "Cage 1 Water Temperature",
  "AKVA-moxtemp_pen10": "Cage 10 Water Temperature",
  "AKVA-moxtemp_pen11": "Cage 11 Water Temperature",
  "AKVA-moxtemp_pen12": "Cage 12 Water Temperature",
  "AKVA-moxtemp_pen13": "Cage 13 Water Temperature",
  "AKVA-moxtemp_pen14": "Cage 14 Water Temperature",
  "AKVA-moxtemp_pen2": "Cage 2 Water Temperature",
  "AKVA-moxtemp_pen3": "Cage 3 Water Temperature",
  "AKVA-moxtemp_pen4": "Cage 4 Water Temperature",
  "AKVA-moxtemp_pen5": "Cage 5 Water Temperature",
  "AKVA-moxtemp_pen6": "Cage 6 Water Temperature",
  "AKVA-moxtemp_pen7": "Cage 7 Water Temperature",
  "AKVA-moxtemp_pen8": "Cage 8 Water Temperature",
  "AKVA-moxtemp_pen9": "Cage 9 Water Temperature",
  "GCTide-1662": "Tide Height",
  "gid": "Noo-la"
}